<?xml version="1.0" standalone="no"?>
<!DOCTYPE svg PUBLIC "-//W3C//DTD SVG 1.1//EN" "http://www.w3.org/Graphics/SVG/1.1/DTD/svg11.dtd">
<svg xmlns="http://www.w3.org/2000/svg">
<metadata>Copyright (C) 2018 by original authors @ fontello.com</metadata>
<defs>
<font id="fontello" horiz-adv-x="1000" >
<font-face font-family="fontello" font-weight="400" font-stretch="normal" units-per-em="1000" ascent="850" descent="-150" />
<missing-glyph horiz-adv-x="1000" />
<glyph glyph-name="baby" unicode="&#xe800;" d="M500-139c-186 0-349 122-393 292-59 1-107 50-107 109 0 60 49 109 109 109h9c57 154 209 256 382 256s325-102 382-256h9c60 0 109-49 109-109 0-59-48-108-107-109-43-170-207-292-393-292z m-391 480c-43 0-79-36-79-79s36-78 79-78h10c7 0 13-5 15-12 36-163 190-281 366-281s331 118 367 281c1 7 7 12 14 12h10c44 0 79 35 79 78s-35 79-79 79h-20c-6 0-12 4-14 10-50 147-193 246-357 246s-307-99-357-246c-2-6-8-10-14-10h-20z m391-335c-37 0-74 10-107 30l-6 4c-7 4-9 13-5 21 4 7 14 9 21 4l6-3c56-35 126-35 182 0l6 3c7 5 17 3 21-4 4-8 2-17-5-21l-6-4c-33-20-70-30-107-30z m33 589c-74 0-134 60-134 134 0 61 50 110 111 110 50 0 91-40 91-91 0-42-34-76-76-76-35 0-64 29-64 64 0 8 7 15 15 15s15-7 15-15c0-19 15-34 34-34 25 0 46 21 46 46 0 34-28 61-61 61-45 0-80-36-80-80 0-57 46-104 103-104 9 0 16-6 16-15s-7-15-16-15z" horiz-adv-x="1000" />

<glyph glyph-name="basket" unicode="&#xe801;" d="M983 492h-143l-278 278c-7 7-17 7-24 0s-6-17 0-23l255-255h-586l255 255c6 6 6 17 0 23s-17 7-24 0l-278-278h-143c-9 0-17-8-17-17v-133c0-10 8-17 17-17h36l64-386c1-8 8-14 16-14h734c8 0 15 6 16 14l65 386h35c10 0 17 7 17 17v133c0 9-7 17-17 17z m-130-534h-705l-62 367h828l-61-367z m114 400h-934v100h934v-100z m-434-66h-66c-9 0-17-8-17-17v-267c0-9 8-16 17-16h66c10 0 17 7 17 16v267c0 9-7 17-17 17z m-16-267h-34v233h34v-233z m-150 267h-67c-9 0-17-8-17-17v-267c0-9 8-16 17-16h67c9 0 16 7 16 16v267c0 9-7 17-16 17z m-17-267h-33v233h33v-233z m350 267h-67c-9 0-16-8-16-17v-267c0-9 7-16 16-16h67c9 0 17 7 17 16v267c0 9-8 17-17 17z m-17-267h-33v233h33v-233z m-516 417c-9 0-17-8-17-17v-33c0-10 8-17 17-17s16 7 16 17v33c0 9-7 17-16 17z m666 0c-9 0-16-8-16-17v-33c0-10 7-17 16-17s17 7 17 17v33c0 9-7 17-17 17z" horiz-adv-x="1000" />

<glyph glyph-name="envelope" unicode="&#xe802;" d="M878 731h-756c-67 0-122-55-122-123v-516c0-68 55-123 122-123h756c67 0 122 55 122 123v516c0 68-55 123-122 123z m66-639c0-37-29-67-66-67h-756c-36 0-66 30-66 67v516c0 37 30 66 66 66h756c36 0 66-29 66-66v-516h0z m-313 264l244 220c12 10 13 28 2 39-10 12-28 13-39 2l-337-302-66 58c0 1-1 1-1 1-1 2-3 3-4 4l-268 240c-12 10-29 9-39-3-11-11-10-29 2-39l247-221-246-231c-11-11-12-28-1-40 5-5 13-9 20-9 7 0 14 3 19 8l250 234 68-61c6-4 12-7 19-7 6 0 13 3 18 8l70 62 249-236c5-5 12-8 19-8 8 0 15 3 20 9 11 11 10 29-1 39l-245 233z" horiz-adv-x="1000" />

<glyph glyph-name="marker" unicode="&#xe803;" d="M500 651c-116 0-209-94-209-209s93-210 209-210 209 94 209 209-94 210-209 210z m0-368c-88 0-159 71-159 158s71 159 159 159 159-71 159-159-71-158-159-158z m0 567c-5 0-10 0-15 0-201-7-368-164-387-365-4-38-2-77 5-115 0 0 1-4 3-13 6-28 15-55 27-80 41-98 133-250 330-414 11-8 24-13 37-13 14 0 27 5 37 13 198 164 289 316 330 414 12 25 21 52 27 80 1 5 2 9 3 12 5 26 7 51 7 77 0 223-181 404-404 404z m347-472c0 0 0-4-2-10-5-24-13-48-24-71-40-93-126-238-316-395-2-2-4-2-5-2-1 0-3 0-5 2-190 158-277 302-316 396-11 22-19 46-24 70-2 5-2 9-2 10 0 0-1 0-1 1-6 33-8 68-4 102 17 175 163 313 339 319 201 7 367-155 367-354 0-23-3-45-7-68z" horiz-adv-x="1000" />

<glyph glyph-name="restaurant-2" unicode="&#xe804;" d="M594 506c0 9-7 16-16 16h-242c-9 0-16-7-16-16 0-9 7-17 16-17h242c9 0 16 8 16 17z m-35-70c0 9-7 17-16 17h-173c-8 0-16-8-16-17 0-9 8-16 16-16h173c9 0 16 7 16 16z m2 122c28 0 50 23 50 51s-22 51-50 51h-208c-28 0-51-23-51-51s23-51 51-51h208z m-226 51c0 10 8 19 18 19h208c10 0 18-9 18-19s-8-18-18-18h-208c-10 0-18 8-18 18z m414-660c-3 43-22 81-51 109v759c0 18-15 33-34 33h-414c-19 0-34-15-34-33v-934c0-18 15-33 34-33h483c28 0 51 23 51 51 0 22-15 41-35 48z m-33 2h-277c9 70 67 124 139 124s130-54 138-124z m-341-69h-125c-1 0-2 1-2 1v934c0 0 1 1 2 1h414c1 0 1-1 1-1v-734c-21 13-45 21-71 23v38h18c9 0 17 7 17 16 0 9-8 16-17 16h-69c-9 0-16-7-16-16 0-9 7-16 16-16h19v-38c-83-7-149-74-155-157-21-7-35-26-35-48 0-7 1-13 3-19z m358 0h-311c-10 0-18 9-18 19s8 18 18 18h311c10 0 19-8 19-18s-9-19-19-19z" horiz-adv-x="1000" />

<glyph glyph-name="restaurant-1" unicode="&#xe805;" d="M880 850h-345c-14 0-26-5-35-14-9 9-21 14-35 14h-345c-28 0-51-23-51-51v-898c0-28 23-51 51-51h345c14 0 26 5 35 14 9-9 21-14 35-14h345c28 0 51 23 51 51v898c0 28-23 51-51 51z m-396-69h-19c-8 0-16-7-16-16 0-9 8-16 16-16h19v-798h-19c-8 0-16-7-16-16 0-9 8-16 16-16h19v-18c0-10-8-19-19-19h-345c-10 0-18 9-18 19v898c0 10 8 19 18 19h345c11 0 19-9 19-19v-18z m415-880c0-10-9-19-19-19h-345c-11 0-19 9-19 19v18h19c9 0 16 7 16 16 0 9-7 16-16 16h-19v798h19c9 0 16 7 16 16 0 9-7 16-16 16h-19v18c0 10 8 19 19 19h345c10 0 19-9 19-19v-898z m-487 658c-1 9-7 15-16 15h-207c-8 0-15-6-16-15l-17-139c-5-39 7-79 33-109 23-25 54-41 88-45v-112c0-26-21-47-47-47-9 0-16-7-16-16 0-9 7-16 16-16h125c9 0 17 7 17 16 0 9-8 16-17 16-25 0-46 21-46 47v112c33 4 65 20 87 45 27 30 39 70 34 109l-18 139z m-40-226c-20-23-49-36-79-36h0c-31 0-60 13-80 36-9 10-16 22-20 35h200c-5-13-12-25-21-35z m26 68h-211c0 5 0 10 1 15l15 125h179l16-125c0-5 1-10 0-15z m404 328h-190c-32 0-59-27-59-59s27-60 59-60h190c33 0 60 27 60 60s-27 59-60 59z m0-86h-190c-15 0-27 12-27 27s12 27 27 27h190c15 0 27-12 27-27s-12-27-27-27z m9-102c9 0 16 7 16 16 0 9-7 17-16 17h-207c-9 0-16-8-16-17 0-9 7-16 16-16h207z m-258-139c0-9 7-16 16-16h242c9 0 16 7 16 16 0 9-7 16-16 16h-242c-9 0-16-7-16-16z m16-85h173c9 0 16 7 16 16 0 9-7 16-16 16h-173c-9 0-16-7-16-16 0-9 7-16 16-16z m277 32h-35c-9 0-16-7-16-16 0-9 7-16 16-16h35c9 0 16 7 16 16 0 9-7 16-16 16z m-277-102h242c9 0 16 8 16 17 0 9-7 16-16 16h-242c-9 0-16-7-16-16 0-9 7-17 16-17z m0-69h173c9 0 16 8 16 17 0 8-7 16-16 16h-173c-9 0-16-8-16-16 0-9 7-17 16-17z m277 33h-35c-9 0-16-8-16-16 0-9 7-17 16-17h35c9 0 16 8 16 17 0 8-7 16-16 16z m-277-102h242c9 0 16 7 16 16 0 9-7 17-16 17h-242c-9 0-16-8-16-17 0-9 7-16 16-16z m173-36h-173c-9 0-16-8-16-17 0-9 7-16 16-16h173c9 0 16 7 16 16 0 9-7 17-16 17z m104 0h-35c-9 0-16-8-16-17 0-9 7-16 16-16h35c9 0 16 7 16 16 0 9-7 17-16 17z" horiz-adv-x="1000" />

<glyph glyph-name="restaurant" unicode="&#xe806;" d="M880 850h-345c-14 0-26-5-35-14-9 9-21 14-35 14h-345c-28 0-51-23-51-51v-898c0-28 23-51 51-51h345c14 0 26 5 35 14 9-9 21-14 35-14h345c28 0 51 23 51 51v898c0 28-23 51-51 51z m-396-69h-19c-8 0-16-7-16-16 0-9 8-16 16-16h19v-798h-19c-8 0-16-7-16-16 0-9 8-16 16-16h19v-18c0-10-8-19-19-19h-345c-10 0-18 9-18 19v898c0 10 8 19 18 19h345c11 0 19-9 19-19v-18z m415-880c0-10-9-19-19-19h-345c-11 0-19 9-19 19v18h19c9 0 16 7 16 16 0 9-7 16-16 16h-19v798h19c9 0 16 7 16 16 0 9-7 16-16 16h-19v18c0 10 8 19 19 19h345c10 0 19-9 19-19v-898z m-97 828h-190c-32 0-59-27-59-59s27-60 59-60h190c33 0 60 27 60 60s-27 59-60 59z m0-86h-190c-15 0-27 12-27 27s12 27 27 27h190c15 0 27-12 27-27s-12-27-27-27z m9-102c9 0 16 7 16 16 0 9-7 17-16 17h-207c-9 0-16-8-16-17 0-9 7-16 16-16h207z m-258-139c0-9 7-16 16-16h242c9 0 16 7 16 16 0 9-7 16-16 16h-242c-9 0-16-7-16-16z m16-85h173c9 0 16 7 16 16 0 9-7 16-16 16h-173c-9 0-16-7-16-16 0-9 7-16 16-16z m277 32h-35c-9 0-16-7-16-16 0-9 7-16 16-16h35c9 0 16 7 16 16 0 9-7 16-16 16z m-277-102h242c9 0 16 8 16 17 0 9-7 16-16 16h-242c-9 0-16-7-16-16 0-9 7-17 16-17z m0-69h173c9 0 16 8 16 17 0 8-7 16-16 16h-173c-9 0-16-8-16-16 0-9 7-17 16-17z m277 33h-35c-9 0-16-8-16-16 0-9 7-17 16-17h35c9 0 16 8 16 17 0 8-7 16-16 16z m-277-102h242c9 0 16 7 16 16 0 9-7 17-16 17h-242c-9 0-16-8-16-17 0-9 7-16 16-16z m173-36h-173c-9 0-16-8-16-17 0-9 7-16 16-16h173c9 0 16 7 16 16 0 9-7 17-16 17z m104 0h-35c-9 0-16-8-16-17 0-9 7-16 16-16h35c9 0 16 7 16 16 0 9-7 17-16 17z m-571 570c-9 0-16-8-16-16v-123h-19v123c0 8-7 16-16 16-9 0-17-8-17-16v-123h-19v123c0 8-7 16-16 16-9 0-16-8-16-16v-156c0-28 22-51 50-51h1v-364c0-9 8-16 17-16 9 0 16 7 16 16v364h1c28 0 51 23 51 51v156c0 8-8 16-17 16z m-16-172c0-10-8-18-18-18h-35c-10 0-18 8-18 18v1h71v-1z m138 141c-2 17-17 31-34 31-19 0-35-16-35-35v-552c0-9 8-16 17-16 8 0 16 7 16 16v174h15c14 0 28 6 37 17 10 10 15 24 13 39l-29 326z m-8-343c-3-4-8-6-13-6h-15v345c0 1 1 2 2 2 1 0 2 0 2-1l29-326c1-6-1-11-5-14z" horiz-adv-x="1000" />

<glyph glyph-name="cancel" unicode="&#xe807;" d="M619 350l356 357c33 32 33 86 0 118-32 33-86 33-118 0l-357-356-356 356c-33 33-87 33-119 0-33-32-33-86 0-118l356-357-356-357c-33-32-33-86 0-118 32-33 86-33 119 0l356 356 357-356c32-33 86-33 118 0 33 32 33 86 0 118l-356 357z" horiz-adv-x="1000" />

<glyph glyph-name="check" unicode="&#xe808;" d="M453 11c-46-45-119-45-165 0l-254 255c-45 45-45 119 0 164 45 45 119 45 164 0l152-152c11-11 30-11 41 0l411 411c45 45 119 45 164 0 22-22 34-51 34-82 0-31-12-61-34-82l-513-514z" horiz-adv-x="1000" />

<glyph glyph-name="clock" unicode="&#xe809;" d="M500 850c-276 0-500-224-500-500s224-500 500-500 500 224 500 500-224 500-500 500z m0-967c-257 0-467 210-467 467s210 467 467 467 467-210 467-467-210-467-467-467z m17 533v169c0 10-8 17-17 17s-17-7-17-17v-169c-23-6-41-24-47-47h-119c-9 0-17-8-17-17s8-17 17-17h119c7-28 33-50 64-50 37 0 67 30 67 67 0 31-22 57-50 64z m-17-97c-18 0-33 15-33 33s15 33 33 33 33-15 33-33-15-33-33-33z m0 366c9 0 17 8 17 17v17c0 9-8 16-17 16s-17-7-17-16v-17c0-9 8-17 17-17z m0-666c-9 0-17-8-17-17v-17c0-9 8-16 17-16s17 7 17 16v17c0 9-8 17-17 17z m367 350h-17c-9 0-17-8-17-17s8-17 17-17h17c9 0 16 8 16 17s-7 17-16 17z m-717 0h-17c-9 0-16-8-16-17s7-17 16-17h17c9 0 17 8 17 17s-8 17-17 17z m598 254l-12-12c-7-6-7-17 0-23 3-3 7-5 12-5s8 2 11 5l12 12c7 6 7 17 0 23s-17 7-23 0z m-507-507l-12-11c-7-7-7-17 0-24 3-3 8-5 12-5s8 2 12 5l11 12c7 6 7 17 0 23s-17 7-23 0z m518 0c-6 7-17 7-23 0s-7-17 0-23l12-12c3-3 7-5 11-5s9 2 12 5c7 7 7 17 0 24l-12 11z m-506 507c-7 7-17 7-24 0s-7-17 0-23l12-12c3-3 7-5 12-5s8 2 11 5c7 6 7 17 0 23l-11 12z" horiz-adv-x="1000" />

<glyph glyph-name="search" unicode="&#xe80a;" d="M689 197c64 69 104 162 104 264 0 214-175 389-389 389s-389-175-389-389 174-389 389-389c87 0 168 29 233 78l289-289c7-8 16-11 24-11s19 3 25 11c14 13 14 35 0 49l-286 287z m-604 264c0 176 143 319 319 319 175 0 318-143 318-319s-142-318-318-318-319 143-319 318z" horiz-adv-x="1000" />

<glyph glyph-name="next" unicode="&#xe80b;" d="M761 386l-450 449c-20 20-52 20-71 0-20-19-20-51 0-71l414-414-414-414c-20-20-20-52 0-71 19-20 51-20 71 0l450 449c19 20 19 52 0 72z" horiz-adv-x="1000" />

<glyph glyph-name="right-arrow" unicode="&#xe80c;" d="M32-150v1000l936-500-936-500z" horiz-adv-x="1000" />

<glyph glyph-name="next-bold" unicode="&#xe80d;" d="M778 389l-445 445c-10 10-24 16-39 16s-28-6-39-16l-32-33c-22-21-22-56 0-77l373-374-374-374c-10-10-16-24-16-39 0-14 6-28 16-38l33-33c10-10 24-16 39-16s28 6 38 16l446 445c10 11 16 25 16 39 0 15-6 29-16 39z" horiz-adv-x="1000" />

<glyph glyph-name="phone" unicode="&#xe80e;" d="M204 185c98-118 217-211 353-276 51-25 120-54 197-59 5 0 9 0 14 0 52 0 93 18 127 54 0 1 1 1 1 1 12 15 26 28 40 42 10 9 20 19 29 29 44 46 44 104 0 149l-125 125c-21 22-46 33-73 33-26 0-52-11-74-33l-74-74c-7 4-14 7-20 10-9 4-16 8-23 13-68 43-129 99-188 171-29 37-49 69-63 101 20 17 38 36 55 54 7 6 13 13 19 19 23 22 35 48 35 75s-12 52-35 74l-61 62c-8 7-14 14-21 21-14 15-28 29-43 42-21 21-46 32-72 32-27 0-52-11-74-32l-78-78c-28-28-44-62-47-102-4-49 5-102 29-165 36-99 91-190 172-288z m-151 449c3 28 13 51 33 71l77 77c12 11 26 17 39 17 12 0 25-6 37-18 14-13 27-26 41-40 7-8 14-15 21-22l62-62c13-13 20-26 20-39s-7-26-20-39c-6-6-13-13-19-19-19-20-37-38-57-56-1 0-1 0-1-1-18-17-15-33-11-46 1 0 1-1 1-1 16-39 38-75 73-119 62-76 127-136 199-182 9-5 19-10 28-14 8-5 16-9 23-13 0 0 1-1 2-1 7-4 13-5 20-5 17 0 27 10 31 14l77 77c12 12 25 19 38 19 16 0 29-10 37-19l125-124c25-25 25-52-1-79-8-9-18-18-27-27-15-14-30-29-44-45-23-26-52-38-89-38-3 0-7 0-10 1-68 4-131 30-179 53-129 62-242 151-336 263-77 93-129 180-164 273-21 57-29 102-26 144z" horiz-adv-x="1000" />
</font>
</defs>
</svg>